epoch,acc,loss,lr,val_acc,val_loss
0,0.93277498314591034,0.65781327685002322,0.1,0.94742703527669792,0.58744825818695101
1,0.97127612177153,0.50580968233183554,0.1,0.96769594703512785,0.49269830608656373
2,0.98258902512225021,0.42818779510628352,0.1,0.97519022534203115,0.42385940105485714
3,0.98760445518485662,0.37060858974435601,0.1,0.98055869305949261,0.36498086036444266
4,0.99029584157473272,0.32451203655925354,0.1,0.98298332505916208,0.32006919610328372
5,0.99211907566773805,0.2851325990355919,0.1,0.9819106037475831,0.29738982647393902
6,0.99294437119469503,0.25226461218656882,0.1,0.98589286682715582,0.25576577995365973
7,0.99405863716578857,0.22342883665271079,0.1,0.9834780444095943,0.23696351426321166
8,0.99434516577058019,0.19910063311328324,0.1,0.98988003254824319,0.2018354833375692
9,0.99496107310083726,0.17742905862234376,0.1,0.98351723443302463,0.19269990183936545
10,0.99552800350817328,0.15821258627741311,0.1,0.98703907434748406,0.17041429701157645
11,0.99576432531781833,0.14194719700874531,0.1,0.98899345955442641,0.15164749799300595
12,0.99605330412931936,0.12784091195857888,0.1,0.99067354670454033,0.13537292958914596
13,0.99604718044992679,0.11606530743675944,0.1,0.99228996634205979,0.12033425138100962
14,0.99625533984909587,0.10542991621426677,0.1,0.99019353601642957,0.11815542459363103
15,0.99663737718083256,0.095823005082397439,0.1,0.99451375516307472,0.09604150477871333
16,0.99678063904748493,0.087229554371126256,0.1,0.99057068301112561,0.099881082807878607
17,0.99705002704239232,0.079493155648823824,0.1,0.98904734585883169,0.096361276453985845
18,0.99678553526751468,0.074156387380410957,0.1,0.99567465209694672,0.07468305382272597
19,0.99709777733381211,0.068516149964556503,0.1,0.99182953243757077,0.079707406453611462
20,0.99705614746580673,0.063697331845798483,0.1,0.99345085372365649,0.070568447663041808
21,0.99704145332824146,0.060208211522909498,0.1,0.99293653470186261,0.069058944570596636
22,0.99731696275053605,0.055762151752859909,0.1,0.9916972830884675,0.068520945716924922
23,0.99736838673512473,0.052618042907119418,0.1,0.99361738532906418,0.060877757476839482
24,0.99770267176056238,0.048740995224976338,0.1,0.99659062029872736,0.050380558933128365
25,0.99751409999550411,0.046850325787624589,0.1,0.99832950443819879,0.044449399211979178
26,0.99750553213878579,0.045055357819541425,0.1,0.99843236753806341,0.04210656023354184
27,0.9974394088567109,0.043602633226616158,0.1,0.99780537884087828,0.042202736209192182
28,0.99777124106011772,0.041091346321747754,0.1,0.99567465056037285,0.044835177359330257
29,0.99769777178672825,0.039748793841985701,0.1,0.99555219686436291,0.043773761653744823
30,0.99753859115063481,0.038717241622504971,0.1,0.98830771844516863,0.066634640169384973
31,0.99757532471956833,0.038015064408572913,0.1,0.99381821749653021,0.047870420375747867
32,0.99777124148860885,0.03653960394462509,0.1,0.99440601802859652,0.048127051729409016
33,0.99891368394798474,0.033023380859308268,0.01,0.99820704289290341,0.034416491426302147
34,0.99933980399471833,0.031326795480080223,0.01,0.9985401246812855,0.033273857639016469
