epoch,acc,loss,lr,val_acc,val_loss
0,0.95418246633340942,0.60729822504446362,0.1,0.93586229433176849,0.6281306355207007
1,0.98557551004537014,0.47329628704963328,0.1,0.94901895778242407,0.56526990421653733
2,0.99111623605870769,0.40661574599478473,0.1,0.95099785166487905,0.51515894066516388
3,0.99367538051463444,0.35429022545782118,0.1,0.96459045056245007,0.40700158288502147
4,0.99495617862527952,0.31064844830645261,0.1,0.96931236171899926,0.35045382777110207
5,0.99546678024708046,0.27416066344099999,0.1,0.97099245456608574,0.31344728974921032
6,0.99606432444475246,0.24204824895510479,0.1,0.96798003428256363,0.29726116769033123
7,0.99653207236402619,0.21375565969369628,0.1,0.96605502671006116,0.28046273234113533
8,0.99686145606914134,0.18921537174077596,0.1,0.97860431204623211,0.22757430438969845
9,0.99687982385134077,0.1687484626155516,0.1,0.97625316278831298,0.20978783944308785
10,0.99707573975091857,0.15088661065613704,0.1,0.98024521854768076,0.18659239704939531
11,0.99740634684542384,0.13418180902480492,0.1,0.97189373609463858,0.19028244800570956
12,0.99753246698173614,0.12006961461327778,0.1,0.97518534690294223,0.17389650297558767
13,0.99732920583688989,0.10873073464161526,0.1,0.97479838366395322,0.16287885063495566
14,0.99767328341609673,0.097790721159693478,0.1,0.98588309009555553,0.12453121042018604
15,0.99761940590780562,0.088708256880347544,0.1,0.98549123038353614,0.11358672379753988
16,0.99785695368333449,0.080372452119338161,0.1,0.98167061059626937,0.11583926503313814
17,0.99783858857608465,0.073289048573127846,0.1,0.98035787509285388,0.11294249016886924
18,0.99789491610110692,0.067090966118059314,0.1,0.98847914908086498,0.089969241919352211
19,0.99778471142278946,0.062122590013907991,0.1,0.98689702539013502,0.088731436599210678
20,0.9980675657409035,0.056564793193403122,0.1,0.98120038161004852,0.10488920678034001
21,0.99788634558191924,0.053063863331665087,0.1,0.97235415568180894,0.12811523964511565
22,0.99799776923020522,0.049563345048679992,0.1,0.98451157867658856,0.081874502626004583
23,0.99794756724553058,0.046793305173915299,0.1,0.98125425346400252,0.09526811412055862
24,0.99820838127529388,0.04317539914630552,0.1,0.98950778757932301,0.063058274143959217
25,0.99837980671170579,0.039984439384081555,0.1,0.99249570425747158,0.053965375797451233
26,0.99826715308164471,0.038113942702670683,0.1,0.98794524922599458,0.065049958503651251
27,0.9981642981040717,0.036749925079668358,0.1,0.98272372509169548,0.081590294564752142
28,0.99836144074747357,0.034271126963986702,0.1,0.97239825318391071,0.10016082316539963
29,0.99825858353592245,0.033068640187611159,0.1,0.98992412130241336,0.055411606018850555
30,0.99846797121815567,0.031234272433815758,0.1,0.99260836247789852,0.047467742053199889
31,0.99848021628194761,0.029927175833437149,0.1,0.99420028546623096,0.040779656059814644
32,0.99827817876500424,0.029579834260572216,0.1,0.98577533497151359,0.065348051408658528
33,0.9983847070322156,0.028675188539185308,0.1,0.98969391325342204,0.049721256245522233
34,0.99820593351750153,0.028316146413251433,0.1,0.99114868794557054,0.043308505103886542
